{
  "name": "pair",
  "units": {
    "concat": {
      "id": "f57f5318-f26f-4b9f-b9e2-dcc022ad7728"
    },
    "single": {
      "id": "d2f8bb43-af44-4371-a32e-20b760695e13"
    },
    "single0": {
      "id": "d2f8bb43-af44-4371-a32e-20b760695e13"
    }
  },
  "merges": {
    "0": {
      "concat": {
        "input": {
          "b": true
        }
      },
      "single": {
        "output": {
          "[a]": true
        }
      }
    },
    "1": {
      "concat": {
        "input": {
          "a": true
        }
      },
      "single0": {
        "output": {
          "[a]": true
        }
      }
    }
  },
  "metadata": {
    "icon": "brackets",
    "description": "build array with elements `0` and `1`",
    "complexity": 11,
    "tags": [
      "core",
      "array"
    ]
  },
  "inputs": {
    "0": {
      "plug": {
        "0": {
          "unitId": "single0",
          "pinId": "a"
        }
      },
      "type": "<A>"
    },
    "1": {
      "plug": {
        "0": {
          "unitId": "single",
          "pinId": "a"
        }
      },
      "type": "<A>"
    }
  },
  "outputs": {
    "hbsxpnl": {
      "plug": {
        "0": {
          "unitId": "concat",
          "pinId": "ab"
        }
      },
      "type": "<A>[]"
    }
  },
  "id": "a7d5c2f3-6134-4248-b9bc-33271c280267",
  "type": "`U`&`G`",
  "system": true
}